<svg width="20" height="20" viewBox="0 0 20 20" fill="none" xmlns="http://www.w3.org/2000/svg">
<path fill-rule="evenodd" clip-rule="evenodd" d="M10 20C15.5228 20 20 15.5228 20 10C20 4.47715 15.5228 0 10 0C4.47715 0 0 4.47715 0 10C0 15.5228 4.47715 20 10 20ZM7.76 5.2V9.46667L4.4 9.46667L10 14.8L15.6 9.46667H12.24V5.2H7.76Z" fill="#6C4FC9"/>
</svg>
