<svg width="345" height="100" viewBox="0 0 345 100" fill="none" xmlns="http://www.w3.org/2000/svg">
<path fill-rule="evenodd" clip-rule="evenodd" d="M106.12 51.4509C106.12 44.537 111.233 39.5569 118 39.5569C124.766 39.5569 129.879 44.537 129.879 51.4509C129.879 58.3634 124.766 63.3442 118 63.3442C111.233 63.3442 106.12 58.3634 106.12 51.4509ZM129.879 38.1444C127.021 34.2788 122.586 31.9004 116.722 31.9004C106.495 31.9004 98 40.3748 98 51.4509C98 62.4516 106.495 71 116.722 71C122.586 71 127.021 68.6216 129.879 64.6814V70.0341H138V18H129.879V38.1444Z" fill="#204CAF"/>
<path fill-rule="evenodd" clip-rule="evenodd" d="M150.12 51.5006C150.12 44.6044 155.233 39.637 162 39.637C168.767 39.637 173.879 44.6044 173.879 51.5006C173.879 58.3956 168.767 63.3637 162 63.3637C155.233 63.3637 150.12 58.3956 150.12 51.5006ZM173.879 38.2281C171.021 34.3724 166.586 32 160.722 32C150.495 32 142 40.4528 142 51.5006C142 62.4734 150.495 71 160.722 71C166.586 71 171.021 68.6277 173.879 64.6975V70.0366H182V32.9641H173.879V38.2281Z" fill="#204CAF"/>
<path fill-rule="evenodd" clip-rule="evenodd" d="M196.071 37.7039V32.9632H188V70H196.071V50.1487C196.071 42.5929 200.255 39.4815 205.561 39.4815C210.642 39.4815 213.929 42.4447 213.929 48.0736V70H222V47.2593C222 37.6302 216.022 32 207.653 32C202.572 32 198.537 33.8519 196.071 37.7039Z" fill="#204CAF"/>
<path fill-rule="evenodd" clip-rule="evenodd" d="M234.121 51.5006C234.121 44.6044 239.233 39.637 246 39.637C252.767 39.637 257.88 44.6044 257.88 51.5006C257.88 58.3956 252.767 63.3637 246 63.3637C239.233 63.3637 234.121 58.3956 234.121 51.5006ZM257.88 32.9641V38.2281C255.023 34.3724 250.587 32 244.722 32C234.497 32 226 40.4528 226 51.5006C226 62.4734 234.497 71 244.722 71C250.587 71 255.023 68.6277 257.88 64.6975V70.0366H266V32.9641H257.88Z" fill="#204CAF"/>
<path fill-rule="evenodd" clip-rule="evenodd" d="M274.788 33.1771H269V41.044H274.788V71H283.014V41.044H292V33.1771H283.014V32.4208C283.014 26.5958 286.212 24.402 292 24.9318V17.0649C280.576 16.3085 274.788 22.2082 274.788 32.4208V33.1771Z" fill="#00C8DC"/>
<path fill-rule="evenodd" clip-rule="evenodd" d="M297 71H305V33H297V71Z" fill="#00C8DC"/>
<path fill-rule="evenodd" clip-rule="evenodd" d="M296 22.0003C296 24.6815 298.246 27 301 27C303.754 27 306 24.6815 306 22.0003C306 19.2464 303.754 17 301 17C298.246 17 296 19.2464 296 22.0003Z" fill="#00C8DC"/>
<path fill-rule="evenodd" clip-rule="evenodd" d="M331.162 51.544L344.334 33H335.01L326.5 45.0081L317.99 33H308.74L321.912 51.4677L308 71H317.324L326.574 58.0037L335.75 71H345L331.162 51.544Z" fill="#00C8DC"/>
<path fill-rule="evenodd" clip-rule="evenodd" d="M38.9062 69.8824H20.75C19.3176 69.8824 18.1562 68.7235 18.1562 67.2941V20.7059C18.1562 19.2765 19.3176 18.1176 20.75 18.1176H38.9062C53.2315 18.1176 64.8438 29.7058 64.8438 44C64.8438 58.2942 53.2315 69.8824 38.9062 69.8824ZM5.51172 0C2.46795 0 0 2.46271 0 5.5V82.5C0 85.5373 2.46795 88 5.51172 88H38.9062C63.259 88 83 68.3009 83 44C83 19.6997 63.259 0 38.9062 0H5.51172Z" fill="#204CAF"/>
<mask id="mask0" mask-type="alpha" maskUnits="userSpaceOnUse" x="26" y="10" width="47" height="53">
<path fill-rule="evenodd" clip-rule="evenodd" d="M46.8889 10.6055C61.3101 10.6055 73 22.323 73 36.7783C73 51.2336 61.3101 62.9511 46.8889 62.9511H28.6111C27.1691 62.9511 26 61.7793 26 60.3339V13.2228C26 11.7774 27.1691 10.6055 28.6111 10.6055" fill="white"/>
</mask>
<g mask="url(#mask0)">
<path fill-rule="evenodd" clip-rule="evenodd" d="M46.8889 62.9511H28.6111C27.1691 62.9511 26 61.7793 26 60.3339V13.2228C26 11.7774 27.1691 10.6055 28.6111 10.6055H46.8889C61.3101 10.6055 73 22.323 73 36.7783C73 51.2336 61.3101 62.9511 46.8889 62.9511Z" fill="url(#paint0_linear)"/>
</g>
<defs>
<linearGradient id="paint0_linear" x1="41.9936" y1="77.1576" x2="85.181" y2="42.2583" gradientUnits="userSpaceOnUse">
<stop stop-color="#7760CA"/>
<stop offset="1" stop-color="#00C8DB"/>
</linearGradient>
</defs>
</svg>
