<svg width="52" height="47" viewBox="0 0 52 47" fill="none" xmlns="http://www.w3.org/2000/svg">
<path fill-rule="evenodd" clip-rule="evenodd" d="M4.55 9C3.14167 9 2 10.1417 2 11.55V42.45C2 43.8583 3.14167 45 4.55 45H47.45C48.8583 45 50 43.8583 50 42.45V11.55C50 10.1417 48.8583 9 47.45 9H4.55Z" fill="#E4E3F8" stroke="#6460D4" stroke-width="2.55"/>
<path d="M2 45.5H50" stroke="#6460D4" stroke-width="2.55" stroke-linecap="round" stroke-linejoin="round"/>
<rect x="38" y="36" width="8" height="5" stroke="#6460D4" stroke-width="2.55" stroke-linecap="round" stroke-linejoin="round"/>
<rect x="18" y="2" width="18" height="8" stroke="#6460D4" stroke-width="2.55"/>
</svg>
