<svg width="57" height="58" viewBox="0 0 57 58" fill="none" xmlns="http://www.w3.org/2000/svg">
<rect opacity="0.01" y="0.5" width="56.1" height="56.1" fill="#181818"/>
<path fill-rule="evenodd" clip-rule="evenodd" d="M6.37495 10.7002C4.96663 10.7002 3.82495 11.8419 3.82495 13.2502V43.8502C3.82495 45.2585 4.96663 46.4002 6.37495 46.4002H49.725C51.1333 46.4002 52.275 45.2585 52.275 43.8502V13.2502C52.275 11.8419 51.1333 10.7002 49.725 10.7002H6.37495Z" stroke="black" stroke-width="2.55"/>
<path d="M3.82495 20.9H52.275" stroke="black" stroke-width="2.55" stroke-linecap="round" stroke-linejoin="round"/>
<rect x="39.525" y="36.2002" width="7.65" height="5.1" stroke="black" stroke-width="2.55" stroke-linecap="round" stroke-linejoin="round"/>
<rect x="19.5" y="2" width="18" height="7.5" stroke="black" stroke-width="2.55"/>
</svg>
